pynq-zu/_deployment/20260211_qhardtanh_v1/output_20260211_Pynq-ZU/report/rtlsim_perf_batch_1.vcd
$version Generated by VerilatedVcd $end
$date Wed Feb 11 19:59:26 2026 $end
$timescale 1ps $end

 $scope module TOP $end
  $var wire  1 !! ap_clk $end
  $var wire  1 "! ap_rst_n $end
  $var wire 24 #! m_axis_0_tdata [23:0] $end
  $var wire  1 $! m_axis_0_tready $end
  $var wire  1 %! m_axis_0_tvalid $end
  $var wire  8 &! s_axis_0_tdata [7:0] $end
  $var wire  1 '! s_axis_0_tready $end
  $var wire  1 (! s_axis_0_tvalid $end
  $scope module finn_design_wrapper $end
   $var wire  1 !! ap_clk $end
   $var wire  1 "! ap_rst_n $end
   $var wire 24 #! m_axis_0_tdata [23:0] $end
   $var wire  1 $! m_axis_0_tready $end
   $var wire  1 %! m_axis_0_tvalid $end
   $var wire  8 &! s_axis_0_tdata [7:0] $end
   $var wire  1 '! s_axis_0_tready $end
   $var wire  1 (! s_axis_0_tvalid $end
   $scope module finn_design_i $end
    $var wire  8 # MVAU_hls_0_out_V_TDATA [7:0] $end
    $var wire  1 $ MVAU_hls_0_out_V_TREADY $end
    $var wire  1 % MVAU_hls_0_out_V_TVALID $end
    $var wire  8 & MVAU_hls_1_out_V_TDATA [7:0] $end
    $var wire  1 ' MVAU_hls_1_out_V_TREADY $end
    $var wire  1 ( MVAU_hls_1_out_V_TVALID $end
    $var wire  8 ) MVAU_hls_2_out_V_TDATA [7:0] $end
    $var wire  1 * MVAU_hls_2_out_V_TREADY $end
    $var wire  1 + MVAU_hls_2_out_V_TVALID $end
    $var wire  8 , MVAU_hls_3_out_V_TDATA [7:0] $end
    $var wire  1 - MVAU_hls_3_out_V_TREADY $end
    $var wire  1 . MVAU_hls_3_out_V_TVALID $end
    $var wire 24 / MVAU_rtl_0_out_V_TDATA [23:0] $end
    $var wire  1 0 MVAU_rtl_0_out_V_TREADY $end
    $var wire  1 1 MVAU_rtl_0_out_V_TVALID $end
    $var wire  8 2 StreamingFIFO_rtl_0_out_V_TDATA [7:0] $end
    $var wire  1 3 StreamingFIFO_rtl_0_out_V_TREADY $end
    $var wire  1 4 StreamingFIFO_rtl_0_out_V_TVALID $end
    $var wire  8 5 StreamingFIFO_rtl_1_out_V_TDATA [7:0] $end
    $var wire  1 6 StreamingFIFO_rtl_1_out_V_TREADY $end
    $var wire  1 7 StreamingFIFO_rtl_1_out_V_TVALID $end
    $var wire  8 8 StreamingFIFO_rtl_2_out_V_TDATA [7:0] $end
    $var wire  1 9 StreamingFIFO_rtl_2_out_V_TREADY $end
    $var wire  1 : StreamingFIFO_rtl_2_out_V_TVALID $end
    $var wire  8 ; StreamingFIFO_rtl_3_out_V_TDATA [7:0] $end
    $var wire  1 < StreamingFIFO_rtl_3_out_V_TREADY $end
    $var wire  1 = StreamingFIFO_rtl_3_out_V_TVALID $end
    $var wire  8 > StreamingFIFO_rtl_4_out_V_TDATA [7:0] $end
    $var wire  1 ? StreamingFIFO_rtl_4_out_V_TREADY $end
    $var wire  1 @ StreamingFIFO_rtl_4_out_V_TVALID $end
    $var wire  8 A StreamingFIFO_rtl_5_out_V_TDATA [7:0] $end
    $var wire  1 B StreamingFIFO_rtl_5_out_V_TREADY $end
    $var wire  1 C StreamingFIFO_rtl_5_out_V_TVALID $end
    $var wire  8 D StreamingFIFO_rtl_6_out_V_TDATA [7:0] $end
    $var wire  1 E StreamingFIFO_rtl_6_out_V_TREADY $end
    $var wire  1 F StreamingFIFO_rtl_6_out_V_TVALID $end
    $var wire  8 G StreamingFIFO_rtl_7_out_V_TDATA [7:0] $end
    $var wire  1 H StreamingFIFO_rtl_7_out_V_TREADY $end
    $var wire  1 I StreamingFIFO_rtl_7_out_V_TVALID $end
    $var wire  8 J StreamingFIFO_rtl_8_out_V_TDATA [7:0] $end
    $var wire  1 K StreamingFIFO_rtl_8_out_V_TREADY $end
    $var wire  1 L StreamingFIFO_rtl_8_out_V_TVALID $end
    $var wire 24 M StreamingFIFO_rtl_9_out_V_TDATA [23:0] $end
    $var wire  1 $! StreamingFIFO_rtl_9_out_V_TREADY $end
    $var wire  1 N StreamingFIFO_rtl_9_out_V_TVALID $end
    $var wire  8 O Thresholding_rtl_0_out_V_TDATA [7:0] $end
    $var wire  1 P Thresholding_rtl_0_out_V_TREADY $end
    $var wire  1 Q Thresholding_rtl_0_out_V_TVALID $end
    $var wire  8 R Thresholding_rtl_1_out_V_TDATA [7:0] $end
    $var wire  1 S Thresholding_rtl_1_out_V_TREADY $end
    $var wire  1 T Thresholding_rtl_1_out_V_TVALID $end
    $var wire  8 U Thresholding_rtl_2_out_V_TDATA [7:0] $end
    $var wire  1 V Thresholding_rtl_2_out_V_TREADY $end
    $var wire  1 W Thresholding_rtl_2_out_V_TVALID $end
    $var wire  8 X Thresholding_rtl_3_out_V_TDATA [7:0] $end
    $var wire  1 Y Thresholding_rtl_3_out_V_TREADY $end
    $var wire  1 Z Thresholding_rtl_3_out_V_TVALID $end
    $var wire  1 !! ap_clk $end
    $var wire  1 !! ap_clk_0_1 $end
    $var wire  1 "! ap_rst_n $end
    $var wire  1 "! ap_rst_n_0_1 $end
    $var wire  8 &! in0_V_0_1_TDATA [7:0] $end
    $var wire  1 [ in0_V_0_1_TREADY $end
    $var wire  1 (! in0_V_0_1_TVALID $end
    $var wire 24 #! m_axis_0_tdata [23:0] $end
    $var wire  1 $! m_axis_0_tready $end
    $var wire  1 %! m_axis_0_tvalid $end
    $var wire  8 &! s_axis_0_tdata [7:0] $end
    $var wire  1 '! s_axis_0_tready $end
    $var wire  1 (! s_axis_0_tvalid $end
    $scope module MVAU_hls_0 $end
     $var wire  8 # MVAU_hls_0_out_V_TDATA [7:0] $end
     $var wire  1 $ MVAU_hls_0_out_V_TREADY $end
     $var wire  1 % MVAU_hls_0_out_V_TVALID $end
     $var wire  8 \ MVAU_hls_0_wstrm_m_axis_0_TDATA [7:0] $end
     $var wire  1 ] MVAU_hls_0_wstrm_m_axis_0_TREADY $end
     $var wire  1 ^ MVAU_hls_0_wstrm_m_axis_0_TVALID $end
     $var wire  1 !! ap_clk $end
     $var wire  1 !! ap_clk_1 $end
     $var wire  1 "! ap_rst_n $end
     $var wire  1 "! ap_rst_n_1 $end
     $var wire  8 2 in0_V_1_TDATA [7:0] $end
     $var wire  1 3 in0_V_1_TREADY $end
     $var wire  1 4 in0_V_1_TVALID $end
     $var wire  8 2 in0_V_tdata [7:0] $end
     $var wire  1 3 in0_V_tready $end
     $var wire  1 4 in0_V_tvalid $end
     $var wire  8 # out_V_tdata [7:0] $end
     $var wire  1 $ out_V_tready $end
     $var wire  1 % out_V_tvalid $end
    $upscope $end
    $scope module MVAU_hls_1 $end
     $var wire  8 & MVAU_hls_1_out_V_TDATA [7:0] $end
     $var wire  1 ' MVAU_hls_1_out_V_TREADY $end
     $var wire  1 ( MVAU_hls_1_out_V_TVALID $end
     $var wire  8 _ MVAU_hls_1_wstrm_m_axis_0_TDATA [7:0] $end
     $var wire  1 ` MVAU_hls_1_wstrm_m_axis_0_TREADY $end
     $var wire  1 a MVAU_hls_1_wstrm_m_axis_0_TVALID $end
     $var wire  1 !! ap_clk $end
     $var wire  1 !! ap_clk_1 $end
     $var wire  1 "! ap_rst_n $end
     $var wire  1 "! ap_rst_n_1 $end
     $var wire  8 8 in0_V_1_TDATA [7:0] $end
     $var wire  1 9 in0_V_1_TREADY $end
     $var wire  1 : in0_V_1_TVALID $end
     $var wire  8 8 in0_V_tdata [7:0] $end
     $var wire  1 9 in0_V_tready $end
     $var wire  1 : in0_V_tvalid $end
     $var wire  8 & out_V_tdata [7:0] $end
     $var wire  1 ' out_V_tready $end
     $var wire  1 ( out_V_tvalid $end
    $upscope $end
    $scope module MVAU_hls_2 $end
     $var wire  8 ) MVAU_hls_2_out_V_TDATA [7:0] $end
     $var wire  1 * MVAU_hls_2_out_V_TREADY $end
     $var wire  1 + MVAU_hls_2_out_V_TVALID $end
     $var wire  8 b MVAU_hls_2_wstrm_m_axis_0_TDATA [7:0] $end
     $var wire  1 c MVAU_hls_2_wstrm_m_axis_0_TREADY $end
     $var wire  1 d MVAU_hls_2_wstrm_m_axis_0_TVALID $end
     $var wire  1 !! ap_clk $end
     $var wire  1 !! ap_clk_1 $end
     $var wire  1 "! ap_rst_n $end
     $var wire  1 "! ap_rst_n_1 $end
     $var wire  8 > in0_V_1_TDATA [7:0] $end
     $var wire  1 ? in0_V_1_TREADY $end
     $var wire  1 @ in0_V_1_TVALID $end
     $var wire  8 > in0_V_tdata [7:0] $end
     $var wire  1 ? in0_V_tready $end
     $var wire  1 @ in0_V_tvalid $end
     $var wire  8 ) out_V_tdata [7:0] $end
     $var wire  1 * out_V_tready $end
     $var wire  1 + out_V_tvalid $end
    $upscope $end
    $scope module MVAU_hls_3 $end
     $var wire  8 , MVAU_hls_3_out_V_TDATA [7:0] $end
     $var wire  1 - MVAU_hls_3_out_V_TREADY $end
     $var wire  1 . MVAU_hls_3_out_V_TVALID $end
     $var wire  8 e MVAU_hls_3_wstrm_m_axis_0_TDATA [7:0] $end
     $var wire  1 f MVAU_hls_3_wstrm_m_axis_0_TREADY $end
     $var wire  1 g MVAU_hls_3_wstrm_m_axis_0_TVALID $end
     $var wire  1 !! ap_clk $end
     $var wire  1 !! ap_clk_1 $end
     $var wire  1 "! ap_rst_n $end
     $var wire  1 "! ap_rst_n_1 $end
     $var wire  8 D in0_V_1_TDATA [7:0] $end
     $var wire  1 E in0_V_1_TREADY $end
     $var wire  1 F in0_V_1_TVALID $end
     $var wire  8 D in0_V_tdata [7:0] $end
     $var wire  1 E in0_V_tready $end
     $var wire  1 F in0_V_tvalid $end
     $var wire  8 , out_V_tdata [7:0] $end
     $var wire  1 - out_V_tready $end
     $var wire  1 . out_V_tvalid $end
    $upscope $end
    $scope module MVAU_rtl_0 $end
     $var wire 24 / MVAU_rtl_0_out_V_TDATA [23:0] $end
     $var wire  1 0 MVAU_rtl_0_out_V_TREADY $end
     $var wire  1 1 MVAU_rtl_0_out_V_TVALID $end
     $var wire  8 h MVAU_rtl_0_wstrm_m_axis_0_TDATA [7:0] $end
     $var wire  1 i MVAU_rtl_0_wstrm_m_axis_0_TREADY $end
     $var wire  1 j MVAU_rtl_0_wstrm_m_axis_0_TVALID $end
     $var wire  1 !! ap_clk $end
     $var wire  1 !! ap_clk_1 $end
     $var wire  1 "! ap_rst_n $end
     $var wire  1 "! ap_rst_n_1 $end
     $var wire  8 J in0_V_1_TDATA [7:0] $end
     $var wire  1 K in0_V_1_TREADY $end
     $var wire  1 L in0_V_1_TVALID $end
     $var wire  8 J in0_V_tdata [7:0] $end
     $var wire  1 K in0_V_tready $end
     $var wire  1 L in0_V_tvalid $end
     $var wire 24 / out_V_tdata [23:0] $end
     $var wire  1 0 out_V_tready $end
     $var wire  1 1 out_V_tvalid $end
    $upscope $end
    $scope module StreamingFIFO_rtl_0 $end
     $var wire  1 !! ap_clk $end
     $var wire  1 "! ap_rst_n $end
     $var wire  2 k count [1:0] $end
     $var wire  8 &! in0_V_TDATA [7:0] $end
     $var wire  1 [ in0_V_TREADY $end
     $var wire  1 (! in0_V_TVALID $end
     $var wire  2 l maxcount [1:0] $end
     $var wire  8 2 out_V_TDATA [7:0] $end
     $var wire  1 3 out_V_TREADY $end
     $var wire  1 4 out_V_TVALID $end
    $upscope $end
    $scope module StreamingFIFO_rtl_1 $end
     $var wire  1 !! ap_clk $end
     $var wire  1 "! ap_rst_n $end
     $var wire  2 m count [1:0] $end
     $var wire  8 # in0_V_TDATA [7:0] $end
     $var wire  1 $ in0_V_TREADY $end
     $var wire  1 % in0_V_TVALID $end
     $var wire  2 n maxcount [1:0] $end
     $var wire  8 5 out_V_TDATA [7:0] $end
     $var wire  1 6 out_V_TREADY $end
     $var wire  1 7 out_V_TVALID $end
    $upscope $end
    $scope module StreamingFIFO_rtl_2 $end
     $var wire  1 !! ap_clk $end
     $var wire  1 "! ap_rst_n $end
     $var wire  6 o count [5:0] $end
     $var wire  8 O in0_V_TDATA [7:0] $end
     $var wire  1 P in0_V_TREADY $end
     $var wire  1 Q in0_V_TVALID $end
     $var wire  6 p maxcount [5:0] $end
     $var wire  8 8 out_V_TDATA [7:0] $end
     $var wire  1 9 out_V_TREADY $end
     $var wire  1 : out_V_TVALID $end
    $upscope $end
    $scope module StreamingFIFO_rtl_3 $end
     $var wire  1 !! ap_clk $end
     $var wire  1 "! ap_rst_n $end
     $var wire  2 q count [1:0] $end
     $var wire  8 & in0_V_TDATA [7:0] $end
     $var wire  1 ' in0_V_TREADY $end
     $var wire  1 ( in0_V_TVALID $end
     $var wire  2 r maxcount [1:0] $end
     $var wire  8 ; out_V_TDATA [7:0] $end
     $var wire  1 < out_V_TREADY $end
     $var wire  1 = out_V_TVALID $end
    $upscope $end
    $scope module StreamingFIFO_rtl_4 $end
     $var wire  1 !! ap_clk $end
     $var wire  1 "! ap_rst_n $end
     $var wire  6 s count [5:0] $end
     $var wire  8 R in0_V_TDATA [7:0] $end
     $var wire  1 S in0_V_TREADY $end
     $var wire  1 T in0_V_TVALID $end
     $var wire  6 t maxcount [5:0] $end
     $var wire  8 > out_V_TDATA [7:0] $end
     $var wire  1 ? out_V_TREADY $end
     $var wire  1 @ out_V_TVALID $end
    $upscope $end
    $scope module StreamingFIFO_rtl_5 $end
     $var wire  1 !! ap_clk $end
     $var wire  1 "! ap_rst_n $end
     $var wire  2 u count [1:0] $end
     $var wire  8 ) in0_V_TDATA [7:0] $end
     $var wire  1 * in0_V_TREADY $end
     $var wire  1 + in0_V_TVALID $end
     $var wire  2 v maxcount [1:0] $end
     $var wire  8 A out_V_TDATA [7:0] $end
     $var wire  1 B out_V_TREADY $end
     $var wire  1 C out_V_TVALID $end
    $upscope $end
    $scope module StreamingFIFO_rtl_6 $end
     $var wire  1 !! ap_clk $end
     $var wire  1 "! ap_rst_n $end
     $var wire  6 w count [5:0] $end
     $var wire  8 U in0_V_TDATA [7:0] $end
     $var wire  1 V in0_V_TREADY $end
     $var wire  1 W in0_V_TVALID $end
     $var wire  6 x maxcount [5:0] $end
     $var wire  8 D out_V_TDATA [7:0] $end
     $var wire  1 E out_V_TREADY $end
     $var wire  1 F out_V_TVALID $end
    $upscope $end
    $scope module StreamingFIFO_rtl_7 $end
     $var wire  1 !! ap_clk $end
     $var wire  1 "! ap_rst_n $end
     $var wire  2 y count [1:0] $end
     $var wire  8 , in0_V_TDATA [7:0] $end
     $var wire  1 - in0_V_TREADY $end
     $var wire  1 . in0_V_TVALID $end
     $var wire  2 z maxcount [1:0] $end
     $var wire  8 G out_V_TDATA [7:0] $end
     $var wire  1 H out_V_TREADY $end
     $var wire  1 I out_V_TVALID $end
    $upscope $end
    $scope module StreamingFIFO_rtl_8 $end
     $var wire  1 !! ap_clk $end
     $var wire  1 "! ap_rst_n $end
     $var wire  2 { count [1:0] $end
     $var wire  8 X in0_V_TDATA [7:0] $end
     $var wire  1 Y in0_V_TREADY $end
     $var wire  1 Z in0_V_TVALID $end
     $var wire  2 | maxcount [1:0] $end
     $var wire  8 J out_V_TDATA [7:0] $end
     $var wire  1 K out_V_TREADY $end
     $var wire  1 L out_V_TVALID $end
    $upscope $end
    $scope module StreamingFIFO_rtl_9 $end
     $var wire  1 !! ap_clk $end
     $var wire  1 "! ap_rst_n $end
     $var wire  2 } count [1:0] $end
     $var wire 24 / in0_V_TDATA [23:0] $end
     $var wire  1 0 in0_V_TREADY $end
     $var wire  1 1 in0_V_TVALID $end
     $var wire  2 ~ maxcount [1:0] $end
     $var wire 24 M out_V_TDATA [23:0] $end
     $var wire  1 $! out_V_TREADY $end
     $var wire  1 N out_V_TVALID $end
    $upscope $end
    $scope module Thresholding_rtl_0 $end
     $var wire  1 !! ap_clk $end
     $var wire  1 "! ap_rst_n $end
     $var wire  8 5 in0_V_TDATA [7:0] $end
     $var wire  1 6 in0_V_TREADY $end
     $var wire  1 7 in0_V_TVALID $end
     $var wire  8 O out_V_TDATA [7:0] $end
     $var wire  1 P out_V_TREADY $end
     $var wire  1 Q out_V_TVALID $end
     $var wire 16 +! s_axilite_ARADDR [15:0] $end
     $var wire  1 1! s_axilite_ARREADY $end
     $var wire  1 )! s_axilite_ARVALID $end
     $var wire 16 +! s_axilite_AWADDR [15:0] $end
     $var wire  1 *! s_axilite_AWREADY $end
     $var wire  1 )! s_axilite_AWVALID $end
     $var wire  1 )! s_axilite_BREADY $end
     $var wire  2 0! s_axilite_BRESP [1:0] $end
     $var wire  1 /! s_axilite_BVALID $end
     $var wire 32 3! s_axilite_RDATA [31:0] $end
     $var wire  1 )! s_axilite_RREADY $end
     $var wire  2 4! s_axilite_RRESP [1:0] $end
     $var wire  1 2! s_axilite_RVALID $end
     $var wire 32 -! s_axilite_WDATA [31:0] $end
     $var wire  1 ,! s_axilite_WREADY $end
     $var wire  4 .! s_axilite_WSTRB [3:0] $end
     $var wire  1 )! s_axilite_WVALID $end
    $upscope $end
    $scope module Thresholding_rtl_1 $end
     $var wire  1 !! ap_clk $end
     $var wire  1 "! ap_rst_n $end
     $var wire  8 ; in0_V_TDATA [7:0] $end
     $var wire  1 < in0_V_TREADY $end
     $var wire  1 = in0_V_TVALID $end
     $var wire  8 R out_V_TDATA [7:0] $end
     $var wire  1 S out_V_TREADY $end
     $var wire  1 T out_V_TVALID $end
     $var wire 16 +! s_axilite_ARADDR [15:0] $end
     $var wire  1 9! s_axilite_ARREADY $end
     $var wire  1 )! s_axilite_ARVALID $end
     $var wire 16 +! s_axilite_AWADDR [15:0] $end
     $var wire  1 5! s_axilite_AWREADY $end
     $var wire  1 )! s_axilite_AWVALID $end
     $var wire  1 )! s_axilite_BREADY $end
     $var wire  2 8! s_axilite_BRESP [1:0] $end
     $var wire  1 7! s_axilite_BVALID $end
     $var wire 32 ;! s_axilite_RDATA [31:0] $end
     $var wire  1 )! s_axilite_RREADY $end
     $var wire  2 <! s_axilite_RRESP [1:0] $end
     $var wire  1 :! s_axilite_RVALID $end
     $var wire 32 -! s_axilite_WDATA [31:0] $end
     $var wire  1 6! s_axilite_WREADY $end
     $var wire  4 .! s_axilite_WSTRB [3:0] $end
     $var wire  1 )! s_axilite_WVALID $end
    $upscope $end
    $scope module Thresholding_rtl_2 $end
     $var wire  1 !! ap_clk $end
     $var wire  1 "! ap_rst_n $end
     $var wire  8 A in0_V_TDATA [7:0] $end
     $var wire  1 B in0_V_TREADY $end
     $var wire  1 C in0_V_TVALID $end
     $var wire  8 U out_V_TDATA [7:0] $end
     $var wire  1 V out_V_TREADY $end
     $var wire  1 W out_V_TVALID $end
     $var wire 16 +! s_axilite_ARADDR [15:0] $end
     $var wire  1 A! s_axilite_ARREADY $end
     $var wire  1 )! s_axilite_ARVALID $end
     $var wire 16 +! s_axilite_AWADDR [15:0] $end
     $var wire  1 =! s_axilite_AWREADY $end
     $var wire  1 )! s_axilite_AWVALID $end
     $var wire  1 )! s_axilite_BREADY $end
     $var wire  2 @! s_axilite_BRESP [1:0] $end
     $var wire  1 ?! s_axilite_BVALID $end
     $var wire 32 C! s_axilite_RDATA [31:0] $end
     $var wire  1 )! s_axilite_RREADY $end
     $var wire  2 D! s_axilite_RRESP [1:0] $end
     $var wire  1 B! s_axilite_RVALID $end
     $var wire 32 -! s_axilite_WDATA [31:0] $end
     $var wire  1 >! s_axilite_WREADY $end
     $var wire  4 .! s_axilite_WSTRB [3:0] $end
     $var wire  1 )! s_axilite_WVALID $end
    $upscope $end
    $scope module Thresholding_rtl_3 $end
     $var wire  1 !! ap_clk $end
     $var wire  1 "! ap_rst_n $end
     $var wire  8 G in0_V_TDATA [7:0] $end
     $var wire  1 H in0_V_TREADY $end
     $var wire  1 I in0_V_TVALID $end
     $var wire  8 X out_V_TDATA [7:0] $end
     $var wire  1 Y out_V_TREADY $end
     $var wire  1 Z out_V_TVALID $end
     $var wire 16 +! s_axilite_ARADDR [15:0] $end
     $var wire  1 I! s_axilite_ARREADY $end
     $var wire  1 )! s_axilite_ARVALID $end
     $var wire 16 +! s_axilite_AWADDR [15:0] $end
     $var wire  1 E! s_axilite_AWREADY $end
     $var wire  1 )! s_axilite_AWVALID $end
     $var wire  1 )! s_axilite_BREADY $end
     $var wire  2 H! s_axilite_BRESP [1:0] $end
     $var wire  1 G! s_axilite_BVALID $end
     $var wire 32 K! s_axilite_RDATA [31:0] $end
     $var wire  1 )! s_axilite_RREADY $end
     $var wire  2 L! s_axilite_RRESP [1:0] $end
     $var wire  1 J! s_axilite_RVALID $end
     $var wire 32 -! s_axilite_WDATA [31:0] $end
     $var wire  1 F! s_axilite_WREADY $end
     $var wire  4 .! s_axilite_WSTRB [3:0] $end
     $var wire  1 )! s_axilite_WVALID $end
    $upscope $end
   $upscope $end
  $upscope $end
 $upscope $end
$enddefinitions $end


#5
b00000000 #
1$
0%
b00000000 &
1'
0(
b00000000 )
1*
0+
b00000000 ,
1-
0.
b000000000000000000000000 /
10
01
b00000000 2
13
04
b00000000 5
16
07
b00000000 8
19
0:
b00000000 ;
1<
0=
b00000000 >
1?
0@
b00000000 A
1B
0C
b00000000 D
1E
0F
b00000000 G
1H
0I
b00000000 J
1K
0L
b000000000000000000000000 M
0N
b10000000 O
1P
0Q
b10000000 R
1S
0T
b10000000 U
1V
0W
b10000000 X
1Y
0Z
1[
b11111000 \
1]
0^
b00000110 _
1`
0a
b11110110 b
1c
0d
b01000010 e
1f
0g
b11111011 h
0i
0j
b00 k
b00 l
b00 m
b00 n
b000000 o
b000000 p
b00 q
b00 r
b000000 s
b000000 t
b00 u
b00 v
b000000 w
b000000 x
b00 y
b00 z
b00 {
b00 |
b00 }
b00 ~
1!!
1"!
b000000000000000000000000 #!
0$!
0%!
b00000000 &!
1'!
0(!
0)!
0*!
b0000000000000000 +!
0,!
b00000000000000000000000000000000 -!
b1111 .!
0/!
b00 0!
01!
02!
b00000000000000000000000000000000 3!
b00 4!
05!
06!
07!
b00 8!
09!
0:!
b00000000000000000000000000000000 ;!
b00 <!
0=!
0>!
0?!
b00 @!
0A!
0B!
b00000000000000000000000000000000 C!
b00 D!
0E!
0F!
0G!
b00 H!
0I!
0J!
b00000000000000000000000000000000 K!
b00 L!
#10
#15
0!!
1$!
#20
#25
1^
1a
1d
1g
1j
1!!
b00011100 &!
1(!
#30
#35
0!!
#40
#45
b00011100 2
14
b00100001 \
b00101110 _
b11100111 b
b00010111 e
b01 k
1!!
b00010100 &!
#50
#55
0!!
#60
#65
b00010100 2
b11111110 \
0]
b11011001 _
0`
b11111001 b
0c
b11000101 e
0f
b01 l
1!!
b00000000 &!
0(!
#70
#75
0!!
#80
#85
04
1]
b00 k
1!!
#90
#95
0!!
#100
#105
b01010000 \
1!!
#110
#115
0!!
#120
#125
b00111010 \
1!!
#130
#135
0!!
#140
#145
b11111110 \
1!!
#150
#155
0!!
#160
#165
b11010010 \
1!!
#170
#175
0!!
#180
#185
b11101010 \
1!!
#190
#195
0!!
#200
#205
b00011111 #
1%
b11010101 \
1!!
#210
#215
0!!
#220
#225
0%
b00011111 5
17
b11000010 \
b01 m
1!!
#230
#235
0!!
#240
#245
b01111111 #
1%
07
b11100101 \
b00 m
b01 n
1!!
#250
#255
0!!
#260
#265
0%
b01111111 5
17
b11110010 \
b01 m
1!!
#270
#275
0!!
#280
#285
1%
07
b00001000 \
b00 m
1!!
#290
#295
0!!
#300
#305
0%
17
b00011001 \
b01 m
1!!
#310
#315
0!!
#320
#325
b10000000 #
1%
07
b11100100 \
b00 m
1!!
#330
#335
0!!
#340
#345
0%
b10000000 5
17
b11011011 \
b01 m
1!!
#350
#355
0!!
#360
#365
1%
07
b00001101 \
b00 m
1!!
#370
#375
0!!
#380
#385
0%
17
b00110101 \
b01 m
1!!
#390
#395
0!!
#400
#405
b10001010 #
1%
07
b11100010 \
b00 m
1!!
#410
#415
0!!
#420
#425
0%
b10001010 5
17
b00000001 \
b01 m
1!!
#430
#435
0!!
#440
#445
b01010110 #
1%
07
b01011111 \
b00 m
1!!
#450
#455
0!!
#460
#465
0%
b01010110 5
17
b11001110 \
b01 m
1!!
#470
#475
0!!
#480
#485
b10000000 #
1%
07
b00111010 \
b00 m
1!!
#490
#495
0!!
#500
#505
0%
b10000000 5
17
b00111110 \
b01 m
1!!
#510
#515
0!!
#520
#525
b01111111 #
1%
07
b00111000 \
b00 m
1!!
#530
#535
0!!
#540
#545
0%
b01111111 5
17
b01001100 \
b01 m
1!!
#550
#555
0!!
#560
#565
b10100000 #
1%
07
b11111011 \
b00 m
1!!
#570
#575
0!!
#580
#585
0%
b10100000 5
17
b00100011 O
1Q
b11000001 \
b01 m
1!!
#590
#595
0!!
#600
#605
b01111111 #
1%
07
b00100011 8
1:
0Q
b01000111 \
b00 m
b000001 o
1!!
#610
#615
0!!
#620
#625
0%
b01111111 5
17
0:
b01111111 O
1Q
b00000010 \
b01 m
b000000 o
b000001 p
1!!
#630
#635
0!!
#640
#645
1%
07
b01111111 8
1:
0Q
b11100101 \
1`
b00 m
b000001 o
1!!
#650
#655
0!!
#660
#665
0%
17
0:
1Q
b00000010 \
b11111110 _
0`
b01 m
b000000 o
1!!
#670
#675
0!!
#680
#685
1%
07
1:
0Q
b00110110 \
1`
b00 m
b000001 o
1!!
#690
#695
0!!
#700
#705
0%
17
0:
b10000000 O
1Q
b10101101 \
b11101011 _
0`
b01 m
b000000 o
1!!
#710
#715
0!!
#720
#725
b10000000 #
1%
07
b10000000 8
1:
0Q
b11110100 \
1`
b00 m
b000001 o
1!!
#730
#735
0!!
#740
#745
0%
b10000000 5
17
0:
1Q
b00110000 \
b11101111 _
0`
b01 m
b000000 o
1!!
#750
#755
0!!
#760
#765
b01111111 #
1%
07
1:
0Q
b00010101 \
1`
b00 m
b000001 o
1!!
#770
#775
0!!
#780
#785
0%
b01111111 5
17
0:
1Q
b11001111 \
b11100111 _
0`
b01 m
b000000 o
1!!
#790
#795
0!!
#800
#805
b11000100 #
1%
07
1:
0Q
b11110000 \
1`
b00 m
b000001 o
1!!
#810
#815
0!!
#820
#825
0%
b11000100 5
17
0:
b01100000 O
1Q
b00101000 \
b00000010 _
0`
b01 m
b000000 o
1!!
#830
#835
0!!
#840
#845
b11100100 #
1%
07
b01100000 8
1:
0Q
b11000101 \
1`
b00 m
b000001 o
1!!
#850
#855
0!!
#860
#865
0%
b11100100 5
17
0:
b10000000 O
1Q
b11010010 \
b11111111 _
0`
b01 m
b000000 o
1!!
#870
#875
0!!
#880
#885
b01001100 #
1%
07
b10000000 8
1:
0Q
b11111011 \
1`
b00 m
b000001 o
1!!
#890
#895
0!!
#900
#905
0%
b01001100 5
17
0:
b01111111 O
1Q
b00111000 \
b11110101 _
0`
b01 m
b000000 o
1!!
#910
#915
0!!
#920
#925
b11001011 #
1%
07
b01111111 8
1:
0Q
b11111101 \
1`
b00 m
b000001 o
1!!
#930
#935
0!!
#940
#945
0%
b11001011 5
17
0:
b10010101 O
1Q
b10101101 \
b00011010 _
0`
b01 m
b000000 o
1!!
#950
#955
0!!
#960
#965
b00010111 #
1%
07
b10010101 8
1:
0Q
b00101011 \
1`
b00 m
b000001 o
1!!
#970
#975
0!!
#980
#985
0%
b00010111 5
17
0:
b01111111 O
1Q
b00001001 \
b11111010 _
0`
b01 m
b000000 o
1!!
#990
#995
0!!
#1000
#1005
b10000000 #
1%
07
b01111111 8
1:
0Q
b00101010 \
1`
b00 m
b000001 o
1!!
#1010
#1015
0!!
#1020
#1025
0%
b10000000 5
17
0:
1Q
b01010111 \
b11011111 _
0`
b01 m
b000000 o
1!!
#1030
#1035
0!!
#1040
#1045
b01110000 #
1%
07
1:
0Q
b11111000 \
1`
b00 m
b000001 o
1!!
#1050
#1055
0!!
#1060
#1065
0%
b01110000 5
17
0:
1Q
b00110001 \
b00001011 _
0`
b01 m
b000000 o
1!!
#1070
#1075
0!!
#1080
#1085
b10000000 #
1%
07
1:
0Q
b11011110 \
1`
b00 m
b000001 o
1!!
#1090
#1095
0!!
#1100
#1105
0%
b10000000 5
17
0:
b10000000 O
1Q
b11100010 \
b00010111 _
0`
b01 m
b000000 o
1!!
#1110
#1115
0!!
#1120
#1125
b01111111 #
1%
07
b10000000 8
1:
0Q
b10111101 \
1`
b00 m
b000001 o
1!!
#1130
#1135
0!!
#1140
#1145
0%
b01111111 5
17
0:
b01111111 O
1Q
b10101100 \
b00010110 _
0`
b01 m
b000000 o
1!!
#1150
#1155
0!!
#1160
#1165
1%
07
b01111111 8
1:
0Q
b10111001 \
1`
b00 m
b000001 o
1!!
#1170
#1175
0!!
#1180
#1185
0%
17
0:
b10111101 O
1Q
b00100111 \
b11010001 _
0`
b01 m
b000000 o
1!!
#1190
#1195
0!!
#1200
#1205
b01000000 #
1%
07
b10111101 8
1:
0Q
b00000010 \
1`
b00 m
b000001 o
1!!
#1210
#1215
0!!
#1220
#1225
0%
b01000000 5
17
0:
b11100001 O
1Q
b01000001 \
b00000010 _
0`
b01 m
b000000 o
1!!
#1230
#1235
0!!
#1240
#1245
b10000000 #
1%
07
b11100001 8
1:
0Q
b11011001 \
1`
b00 m
b000001 o
1!!
#1250
#1255
0!!
#1260
#1265
0%
b10000000 5
17
0:
b01010101 O
1Q
b00100100 \
b00010001 _
0`
b01 m
b000000 o
1!!
#1270
#1275
0!!
#1280
#1285
1%
07
b01010101 8
1:
0Q
b11111101 \
1`
b00 m
b000001 o
1!!
#1290
#1295
0!!
#1300
#1305
0%
17
0:
b11000101 O
1Q
b00100000 \
b11001011 _
0`
b01 m
b000000 o
1!!
#1310
#1315
0!!
#1320
#1325
b10010011 #
1%
07
b11000101 8
1:
0Q
b00000110 \
1`
b00 m
b000001 o
1!!
#1330
#1335
0!!
#1340
